{
  "mqtt": {
    "cafile": "../docker/certs/localCA.crt",
    "host": "localhost",
    "password": "pass",
    "rejectUnauthorised": "false",
    "user": "user"
  },
  "objectDetection": {
    "minConfidence": 0.70,
    "objectClasses": "person",
    "timeoutPeriod": 120000
  }
}