{
    "group": "RHSsYfiV6Z",
    "time": "2020-04-24T13:49:16+00:00",
    "monitorId": "xi5cncrNK6",
    "plug": "TensorFlow-WithFiltering-And-MQTT",
    "details": {
        "plug": "TensorFlow-WithFiltering-And-MQTT",
        "name": "Tensorflow",
        "reason": "object",
        "matrices": [
            {
                "x": 2.313079833984375,
                "y": 1.0182666778564453,
                "width": 373.25050354003906,
                "height": 476.9341278076172,
                "tag": "person",
                "confidence": 0.7375929355621338
            }
        ],
        "img": "base64",
        "imgHeight": 480,
        "imgWidth": 640,
        "time": 133
    }
}